{
  "ts": "2026-02-12T16:58:15.514413+00:00",
  "method": "GET",
  "path": "/notifications#admin",
  "status": 200,
  "request": null,
  "params": null,
  "response": {
    "items": [
      {
        "id": "ec681cdd-7952-4407-8e98-4f101d16fe16",
        "user_id": "cf2af5c6-3ec3-4247-b43e-ff8be5f86e65",
        "title": "New role request",
        "body": "Alpha Market requested role: market_owner",
        "type": "role_request",
        "data": {
          "request_id": "8ccf80db-646b-4171-8b88-994c428fa09c",
          "target_role": "market_owner",
          "route": "/admin/role-requests"
        },
        "is_read": false,
        "created_at": "2026-02-12T16:58:15.483000",
        "updated_at": "2026-02-12T16:58:15.483000"
      },
      {
        "id": "398e8db9-510b-41af-8319-ac7f2b104079",
        "user_id": "cf2af5c6-3ec3-4247-b43e-ff8be5f86e65",
        "title": "New role request",
        "body": "Alpha Clinic requested role: care_clinic",
        "type": "role_request",
        "data": {
          "request_id": "aeae60e4-d878-45b2-9620-937dd00c59aa",
          "target_role": "care_clinic",
          "route": "/admin/role-requests"
        },
        "is_read": false,
        "created_at": "2026-02-12T16:58:15.460000",
        "updated_at": "2026-02-12T16:58:15.460000"
      },
      {
        "id": "d4a430ce-eccf-4db8-8f67-754a7f1c31bb",
        "user_id": "cf2af5c6-3ec3-4247-b43e-ff8be5f86e65",
        "title": "New role request",
        "body": "Alpha Vet requested role: vet",
        "type": "role_request",
        "data": {
          "request_id": "65ef4003-9b0b-4ea3-a89b-ba77613c3451",
          "target_role": "vet",
          "route": "/admin/role-requests"
        },
        "is_read": false,
        "created_at": "2026-02-12T16:58:15.436000",
        "updated_at": "2026-02-12T16:58:15.436000"
      },
      {
        "id": "a0017581-d91f-4726-a6dd-16e38d142be5",
        "user_id": "cf2af5c6-3ec3-4247-b43e-ff8be5f86e65",
        "title": "User reported",
        "body": "Alpha User reported a user profile.",
        "type": "admin",
        "data": {
          "route": "/admin/users",
          "target_user_id": "7675e4be-373e-4dbc-b244-3e1f4a5c5a0a"
        },
        "is_read": false,
        "created_at": "2026-02-12T16:58:15.328000",
        "updated_at": "2026-02-12T16:58:15.328000"
      },
      {
        "id": "98400b39-dc7e-4a38-a59c-cbe00c9fe95c",
        "user_id": "cf2af5c6-3ec3-4247-b43e-ff8be5f86e65",
        "title": "New role request",
        "body": "Alpha Market requested role: market_owner",
        "type": "role_request",
        "data": {
          "request_id": "cdcea2f1-c399-47ed-9e36-a068e2f6f7c1",
          "target_role": "market_owner",
          "route": "/admin/role-requests"
        },
        "is_read": false,
        "created_at": "2026-02-12T16:57:22.193000",
        "updated_at": "2026-02-12T16:57:22.193000"
      },
      {
        "id": "d49656cc-38b5-4a48-9e46-18d10229a7f4",
        "user_id": "cf2af5c6-3ec3-4247-b43e-ff8be5f86e65",
        "title": "New role request",
        "body": "Alpha Clinic requested role: care_clinic",
        "type": "role_request",
        "data": {
          "request_id": "5e671f78-0825-4e57-8766-679442897f04",
          "target_role": "care_clinic",
          "route": "/admin/role-requests"
        },
        "is_read": false,
        "created_at": "2026-02-12T16:57:22.168000",
        "updated_at": "2026-02-12T16:57:22.168000"
      },
      {
        "id": "e021a60a-3eed-435e-a212-b7030599500b",
        "user_id": "cf2af5c6-3ec3-4247-b43e-ff8be5f86e65",
        "title": "New role request",
        "body": "Alpha Vet requested role: vet",
        "type": "role_request",
        "data": {
          "request_id": "40ea9dbc-9a1d-4bc9-bc95-30030f0cfabf",
          "target_role": "vet",
          "route": "/admin/role-requests"
        },
        "is_read": false,
        "created_at": "2026-02-12T16:57:22.143000",
        "updated_at": "2026-02-12T16:57:22.143000"
      },
      {
        "id": "8caef377-51a2-413d-9edf-c4f70fbf681f",
        "user_id": "cf2af5c6-3ec3-4247-b43e-ff8be5f86e65",
        "title": "User reported",
        "body": "Alpha User reported a user profile.",
        "type": "admin",
        "data": {
          "route": "/admin/users",
          "target_user_id": "46e2abf0-a4e8-4048-8297-33a89d2bbf7a"
        },
        "is_read": false,
        "created_at": "2026-02-12T16:57:22.008000",
        "updated_at": "2026-02-12T16:57:22.008000"
      },
      {
        "id": "5d190c86-24bc-4312-8f7c-139feed8ccc9",
        "user_id": "cf2af5c6-3ec3-4247-b43e-ff8be5f86e65",
        "title": "New role request",
        "body": "Alpha Market requested role: market_owner",
        "type": "role_request",
        "data": {
          "request_id": "2154f870-2c7b-40a9-9ca2-ea208010bcf3",
          "target_role": "market_owner",
          "route": "/admin/role-requests"
        },
        "is_read": false,
        "created_at": "2026-02-12T15:31:02.359000",
        "updated_at": "2026-02-12T15:31:02.359000"
      },
      {
        "id": "fe80521d-603a-4eef-bcf6-23827c219d1c",
        "user_id": "cf2af5c6-3ec3-4247-b43e-ff8be5f86e65",
        "title": "New role request",
        "body": "Alpha Clinic requested role: care_clinic",
        "type": "role_request",
        "data": {
          "request_id": "8533f1f6-0caa-46ab-a0b3-db62110878af",
          "target_role": "care_clinic",
          "route": "/admin/role-requests"
        },
        "is_read": false,
        "created_at": "2026-02-12T15:31:02.338000",
        "updated_at": "2026-02-12T15:31:02.338000"
      },
      {
        "id": "48ed9603-99d7-461e-8377-ce8e0f6f8e24",
        "user_id": "cf2af5c6-3ec3-4247-b43e-ff8be5f86e65",
        "title": "New role request",
        "body": "Alpha Vet requested role: vet",
        "type": "role_request",
        "data": {
          "request_id": "db1364c0-e9b0-4f80-8b6e-21be87d4ccb3",
          "target_role": "vet",
          "route": "/admin/role-requests"
        },
        "is_read": false,
        "created_at": "2026-02-12T15:31:02.317000",
        "updated_at": "2026-02-12T15:31:02.317000"
      },
      {
        "id": "8dc19651-30c3-4dc0-a8c3-9ba5b8038d6b",
        "user_id": "cf2af5c6-3ec3-4247-b43e-ff8be5f86e65",
        "title": "User reported",
        "body": "Alpha User reported a user profile.",
        "type": "admin",
        "data": {
          "route": "/admin/users",
          "target_user_id": "9ef02715-e265-4379-af3f-f7b4716ea2c5"
        },
        "is_read": false,
        "created_at": "2026-02-12T15:31:02.218000",
        "updated_at": "2026-02-12T15:31:02.218000"
      },
      {
        "id": "df19bb25-d2e2-494b-bfb3-4119a2d1da87",
        "user_id": "cf2af5c6-3ec3-4247-b43e-ff8be5f86e65",
        "title": "New role request",
        "body": "Alpha Market requested role: market_owner",
        "type": "role_request",
        "data": {
          "request_id": "4c1dff33-6c9c-4ea0-9a8b-429f666a913c",
          "target_role": "market_owner",
          "route": "/admin/role-requests"
        },
        "is_read": false,
        "created_at": "2026-02-12T15:30:13.731000",
        "updated_at": "2026-02-12T15:30:13.731000"
      },
      {
        "id": "87130645-3313-4356-af85-2d8f9a10aecf",
        "user_id": "cf2af5c6-3ec3-4247-b43e-ff8be5f86e65",
        "title": "New role request",
        "body": "Alpha Clinic requested role: care_clinic",
        "type": "role_request",
        "data": {
          "request_id": "beeb7df8-128b-4f7d-b983-fc4d033712f7",
          "target_role": "care_clinic",
          "route": "/admin/role-requests"
        },
        "is_read": false,
        "created_at": "2026-02-12T15:30:13.707000",
        "updated_at": "2026-02-12T15:30:13.707000"
      },
      {
        "id": "11b905d5-9eaa-4b51-b6c6-b80424c9932b",
        "user_id": "cf2af5c6-3ec3-4247-b43e-ff8be5f86e65",
        "title": "New role request",
        "body": "Alpha Vet requested role: vet",
        "type": "role_request",
        "data": {
          "request_id": "27dfdb5e-da00-4935-afc9-101212ebd1ff",
          "target_role": "vet",
          "route": "/admin/role-requests"
        },
        "is_read": false,
        "created_at": "2026-02-12T15:30:13.685000",
        "updated_at": "2026-02-12T15:30:13.685000"
      },
      {
        "id": "355dc59d-c3d9-404f-baa9-57a19eb17d0b",
        "user_id": "cf2af5c6-3ec3-4247-b43e-ff8be5f86e65",
        "title": "User reported",
        "body": "Alpha User reported a user profile.",
        "type": "admin",
        "data": {
          "route": "/admin/users",
          "target_user_id": "9a0e048d-8877-4dd4-9517-5f6656367767"
        },
        "is_read": false,
        "created_at": "2026-02-12T15:30:13.590000",
        "updated_at": "2026-02-12T15:30:13.590000"
      },
      {
        "id": "2dc8aec2-cc9d-4318-ae8f-6a2d45d1f8d8",
        "user_id": "cf2af5c6-3ec3-4247-b43e-ff8be5f86e65",
        "title": "New role request",
        "body": "Alpha Market requested role: market_owner",
        "type": "role_request",
        "data": {
          "request_id": "112eb910-be77-4cc8-8c53-8cb608722f35",
          "target_role": "market_owner",
          "route": "/admin/role-requests"
        },
        "is_read": false,
        "created_at": "2026-02-12T15:29:50.557000",
        "updated_at": "2026-02-12T15:29:50.557000"
      },
      {
        "id": "c32a8f0d-2485-4963-96e6-bc500e477774",
        "user_id": "cf2af5c6-3ec3-4247-b43e-ff8be5f86e65",
        "title": "New role request",
        "body": "Alpha Clinic requested role: care_clinic",
        "type": "role_request",
        "data": {
          "request_id": "94edb821-d57e-428a-8d0d-e25be93252c3",
          "target_role": "care_clinic",
          "route": "/admin/role-requests"
        },
        "is_read": false,
        "created_at": "2026-02-12T15:29:50.536000",
        "updated_at": "2026-02-12T15:29:50.536000"
      },
      {
        "id": "93cbfd95-f138-4cd2-a9d3-af7883e6228e",
        "user_id": "cf2af5c6-3ec3-4247-b43e-ff8be5f86e65",
        "title": "New role request",
        "body": "Alpha Vet requested role: vet",
        "type": "role_request",
        "data": {
          "request_id": "9c3ac780-2442-49d1-abfe-23b98b859095",
          "target_role": "vet",
          "route": "/admin/role-requests"
        },
        "is_read": false,
        "created_at": "2026-02-12T15:29:50.513000",
        "updated_at": "2026-02-12T15:29:50.513000"
      },
      {
        "id": "929bba66-54df-492f-9651-ed1c7b96fe87",
        "user_id": "cf2af5c6-3ec3-4247-b43e-ff8be5f86e65",
        "title": "User reported",
        "body": "Alpha User reported a user profile.",
        "type": "admin",
        "data": {
          "route": "/admin/users",
          "target_user_id": "bf02feb5-1829-4611-82f8-f623b48bd198"
        },
        "is_read": false,
        "created_at": "2026-02-12T15:29:50.416000",
        "updated_at": "2026-02-12T15:29:50.416000"
      }
    ],
    "total": 89,
    "limit": 20,
    "offset": 0,
    "has_more": true
  }
}